Project2
…
Find the product that gets most complaints with sub products

cc_df %>%
  filter(Sub.product != '' )%>%
 group_by(Product, Sub.product) %>%
  summarise(No_Products=n()) %>%
   arrange(No_Products)

## Source: local data frame [39 x 3]
## Groups: Product [9]
## 
##                    Product                        Sub.product No_Products
##                      <chr>                              <chr>       <int>
## 1            Consumer Loan                         Title loan           1
## 2             Prepaid card              Gift or merchant card           1
## 3             Prepaid card                       Payroll card           1
## 4             Student loan     Federal student loan servicing           1
## 5  Bank account or service Cashing a check without an account           2
## 6  Other financial service                    Debt settlement           2
## 7  Other financial service          Refund anticipation check           2
## 8             Prepaid card                    ID prepaid card           2
## 9             Prepaid card                      Mobile wallet           2
## 10            Prepaid card    Government benefit payment card           3
## # ... with 29 more rows
…
Peform trend analysis compare last years Number of complaints to this years per states with most complaints

S_y_complain <-cc_df %>%
  separate(Date.received, c("Month","Day","Year"), sep = "/") %>%
  mutate(Year_num= as.numeric(Year)) %>%
  group_by(State,Year_num)%>%
  summarise(No_complaints = n())%>%
  filter(State %in%  top10_states$State )%>%
  arrange(State,Year_num)

S_y_complain 

## Source: local data frame [27 x 3]
## Groups: State [10]
## 
##    State Year_num No_complaints
##    <chr>    <dbl>         <int>
## 1     CA     2013            58
## 2     CA     2016           375
## 3     CA     2017             4
## 4     FL     2013            37
## 5     FL     2016           251
## 6     FL     2017             1
## 7     GA     2013            18
## 8     GA     2016           156
## 9     GA     2017             1
## 10    MD     2013             3
## # ... with 17 more rows
…
